{
  "GIS Smallworld (Aplicación Core, Portal, App Móvil)": [
    [ "GIS Smallworld (Aplicación Core, Portal, App Móvil)"],
    [ "1703" ],
    [ "1703" ]
  ],
  "SAP ECOFIN": [
    [ "SAP ECOFIN" ],
    [ "1971" ],
    [ "1971" ]
  ],
  "SAP IS-U (GEISER)": [
    [ "SAP IS-U (GEISER)" ],
    [ "4783" ],
    [ "4783" ]
  ],
  "Streamserve": [
    [ "Streamserve" ],
    [ "721" ],
    [ "721" ]
  ],
  "Aplicaciones Sharepoint - GA": [
    [ "Aplicaciones Sharepoint - GA" ],
    [ "87" ],
    [ "87" ]
  ],
  "Aplicaciones Sharepoint - Seguimiento de Roturas": [
    [ "Aplicaciones Sharepoint - Seguimiento de Roturas" ],
    [ "87" ],
    [ "87" ]
  ],
  "Aplicaciones Sharepoint -E/S": [
    [ "Aplicaciones Sharepoint -E/S" ],
    [ "87" ],
    [ "87" ]
  ],
  "Aplicaciones Sharepoint - PPMAC": [
    [ "Aplicaciones Sharepoint - PPMAC" ],
    [ "87" ],
    [ "87" ]
  ],
  "Aplicaciones Sharepoint - Archivo": [
    [ "Aplicaciones Sharepoint - Archivo" ],
    [ "87" ],
    [ "87" ]
  ],
  "Catastro": [
    [ "Catastro" ],
    [ "0" ],
    [ "0" ]
  ],
  "EDITRAN": [
    [ "EDITRAN" ],
    [ "31" ],
    [ "31" ]
  ],
  "eFactura": [
    [ "eFactura" ],
    [ "17" ],
    [ "17" ]
  ],
  "GHG (BD Cliente Java - Histórico Gaudí)": [
    [ "GHG (BD Cliente Java - Histórico Gaudí)" ],
    [ "0" ],
    [ "0" ]
  ],
  "Portales - PIP": [
    [ "Portales - PIP" ],
    [ "353" ],
    [ "353" ]
  ],
  "Portales - VAI": [
    [ "Portales - VAI" ],
    [ "252" ],
    [ "252" ]
  ],
  "Portales - Telemedida/GC": [
    [ "Portales - Telemedida/GC" ],
    [ "50" ],
    [ "50" ]
  ],
  "Portales - GLP": [
    [ "Portales - GLP" ],
    [ "353" ],
    [ "353" ]
  ],
  "SAP BW": [
    [ "SAP BW" ],
    [ "154" ],
    [ "154" ]
  ],
  "SAP IS-U CIC0": [
    [ "SAP IS-U CIC0" ],
    [ "242" ],
    [ "242" ]
  ],
  "SAP Movilidad y portales": [
    [ "SAP Movilidad y portales" ],
    [ "386" ],
    [ "386" ]
  ],
  "SAP PI": [
    [ "SAP PI" ],
    [ "48" ],
    [ "48" ]
  ],
  "Mantenimiento Aplicacional „SCTD - Evolutivos": [
    [ "Mantenimiento Aplicacional „SCTD - Evolutivos" ],
    [ "1418" ],
    [ "1418" ]
  ],
  "Mantenimiento Evolutivo Depósitos GLP": [
    [ "Mantenimiento Evolutivo Depósitos GLP" ],
    [ "126" ],
    [ "126" ]
  ]
}