{
  "values": {
    "Login_ID": "AGENSOPOR",
    "Reported_Source": "Other",
    "Service_Type": "User Service Request",
    "Categorization_Tier_1": "Peticion",
    "Product_Categorization_Tier_1": "Transporte",
    "Product_Categorization_Tier_2": "Transporte",
    "Product_Categorization_Tier_3": "Transporte",
    "Description": "TEST DESDE JIRA"
  },
  "login": {
    "username": "nedintegra",
    "password": "uvYHJaKd",
    "urlLogin": "http://servicedesk.ibermatica.com:8008/api/jwt/login",
    "urlCreate": "http://servicedesk.ibermatica.com:8008/api/arsys/v1/entry/HPD:IncidentInterface_Create"
  }
}